                     x
                     x
                     x
                     x
 P                   x
                   c x
                     x
                     x
                     x
                     x
                     x
                     x
                     x
xxxxxxxxxxxxxxxxxxxxxx